…
This specification results in a tibble column.

``` r
tibblify(gh_repos_small, spec)
#> # A tibble: 30 × 3
#>          id name        owner$login    $id $url                                 
#>       <int> <chr>       <chr>        <int> <chr>                                
#>  1 61160198 after       gaborcsardi 660288 https://api.github.com/users/gaborcs…
#>  2 40500181 argufy      gaborcsardi 660288 https://api.github.com/users/gaborcs…
#>  3 36442442 ask         gaborcsardi 660288 https://api.github.com/users/gaborcs…
#>  4 34924886 baseimports gaborcsardi 660288 https://api.github.com/users/gaborcs…
#>  5 61620661 citest      gaborcsardi 660288 https://api.github.com/users/gaborcs…
#>  6 33907457 clisymbols  gaborcsardi 660288 https://api.github.com/users/gaborcs…
#>  7 37236467 cmaker      gaborcsardi 660288 https://api.github.com/users/gaborcs…
#>  8 67959624 cmark       gaborcsardi 660288 https://api.github.com/users/gaborcs…
#>  9 63152619 conditions  gaborcsardi 660288 https://api.github.com/users/gaborcs…
#> 10 24343686 crayon      gaborcsardi 660288 https://api.github.com/users/gaborcs…
#> # ℹ 20 more rows
```
…
tibblify(gh_repos_small, spec2)
#> # A tibble: 30 × 4
#>          id name        owner_id owner_login
#>       <int> <chr>          <int> <chr>      
#>  1 61160198 after         660288 gaborcsardi
#>  2 40500181 argufy        660288 gaborcsardi
#>  3 36442442 ask           660288 gaborcsardi
#>  4 34924886 baseimports   660288 gaborcsardi
#>  5 61620661 citest        660288 gaborcsardi
#>  6 33907457 clisymbols    660288 gaborcsardi
#>  7 37236467 cmaker        660288 gaborcsardi
#>  8 67959624 cmark         660288 gaborcsardi
#>  9 63152619 conditions    660288 gaborcsardi
#> 10 24343686 crayon        660288 gaborcsardi
#> # ℹ 20 more rows
```
…
